…
We now understand the data and the data types of each column. Let’s get
our hand dirty with data cleaning! What I am going to do with the data
cleaning:

1.  Concatenate the year, month, and day as a Date column.  
2.  I will apply the filter on the data to subset only data from 2000 to
    2023.
3.  Select only the columns that are relevant to my questions of
    interest.

``` r
earthquake_df %>% mutate(date = make_date(year = Year, month = Mo, day = Dy)) %>%  filter(date >= "2000-01-01" & date <= "2023-12-31") %>% select(date, `Location Name`, Latitude, Longitude, `Focal Depth (km)`, Mag, Deaths, Injuries, `Damage ($Mil)`,`Houses Damaged`, `Total Deaths`, `Total Injuries`, `Total Damage ($Mil)`, `Total Houses Damaged`)
```

    ## # A tibble: 1,298 × 14
    ##    date       Location Na…¹ Latit…² Longi…³ Focal…⁴   Mag Deaths Injur…⁵ Damag…⁶
    ##    <date>     <chr>           <dbl>   <dbl>   <dbl> <dbl>  <dbl>   <dbl>   <dbl>
    ##  1 2000-01-03 INDIA-BANGLA…   22.1     92.8      33   4.6     NA      NA    NA  
    ##  2 2000-01-11 CHINA:  LIAO…   40.5    123.       10   5.1     NA      30    NA  
    ##  3 2000-01-14 CHINA:  YUNN…   25.6    101.       33   5.9      5    2528    73.5
    ##  4 2000-02-02 IRAN:  BARDA…   35.3     58.2      33   5.3      1      15    NA  
    ##  5 2000-02-07 SOUTH AFRICA…  -26.3     30.9       5   4.5     NA       1    NA  
    ##  6 2000-03-28 JAPAN:  VOLC…   22.3    144.      127   7.6     NA      NA    NA  
    ##  7 2000-04-05 GREECE:  CRE…   34.2     25.7      38   5.5     NA      NA    NA  
    ##  8 2000-05-04 INDONESIA:  …   -1.10   124.       26   7.6     54     264    30  
    ##  9 2000-05-07 TURKEY:  DOG…   38.2     38.8       5   4.1     NA      NA    NA  
    ## 10 2000-05-17 TAIWAN:  TAI…   24.2    121.       10   5.4      3      13    NA  
    ## # … with 1,288 more rows, 5 more variables: `Houses Damaged` <dbl>,
    ## #   `Total Deaths` <dbl>, `Total Injuries` <dbl>, `Total Damage ($Mil)` <dbl>,
    ## #   `Total Houses Damaged` <dbl>, and abbreviated variable names
    ## #   ¹​`Location Name`, ²​Latitude, ³​Longitude, ⁴​`Focal Depth (km)`, ⁵​Injuries,
    ## #   ⁶​`Damage ($Mil)`
